[
  {
    "name": "Home",
    "path": "/Users/esbenboye-jacobsen"
  },
  {
    "name": "CargoServer",
    "path": "/Users/esbenboye-jacobsen/workspace/multiit/cargoserver"
  }, 
  {
    "name": "DevBox",
    "path": "/Users/esbenboye-jacobsen/"
  }

]
